{
	"IcoMoonType": "selection",
	"icons": [
		{
			"icon": {
				"paths": [
					"M441.139 677.274c-26.88 140.954-59.699 276.122-156.979 346.726-30.003-213.094 44.083-373.094 78.49-542.976-58.675-98.816 7.066-297.574 130.867-248.576 152.32 60.262-131.891 367.258 58.88 405.606 199.219 40.038 280.525-345.6 157.030-470.989-178.483-181.146-519.578-4.198-477.594 255.027 10.189 63.386 75.674 82.637 26.163 170.086-114.227-25.293-148.326-115.405-143.923-235.52 7.066-196.557 176.64-334.182 346.726-353.229 215.142-24.115 417.024 78.95 444.826 281.293 31.386 228.352-97.024 475.699-327.117 457.882-62.31-4.762-88.474-35.635-137.37-65.331z"
				],
				"tags": [
					"pinterest",
					"social"
				],
				"grid": 20
			},
			"properties": {
				"id": 251,
				"order": 1,
				"prevSize": 20,
				"code": 58886,
				"name": "pinterest2",
				"ligatures": ""
			},
			"setIdx": 3,
			"iconIdx": 251
		},
		{
			"icon": {
				"paths": [
					"M101.888 286.157c0 76.442 25.549 131.686 75.878 164.096 41.216 26.573 89.088 30.566 113.971 30.566 6.042 0 10.854-0.256 14.234-0.461 0 0-7.885 51.354 30.208 102.195l-1.741-0.051c-65.997 0-281.293 13.824-281.293 190.822 0 180.070 197.734 189.184 237.363 189.184 3.123 0 4.915-0.051 4.915-0.051 0.461 0 3.277 0.102 8.090 0.102 25.446 0 91.238-3.174 152.371-32.922 79.258-38.451 119.501-105.421 119.501-198.912 0-90.368-61.235-144.128-105.984-183.45-27.29-23.962-50.893-44.646-50.893-64.768 0-20.48 17.203-35.891 39.014-55.398 35.226-31.539 68.506-76.442 68.506-161.331 0-74.65-9.677-124.723-69.325-156.467 6.246-3.174 28.211-5.478 39.117-7.014 32.307-4.403 79.565-9.421 79.565-35.789l-0-5.069h-235.418c-2.355 0.051-238.080 8.806-238.080 224.717zM481.946 747.622c4.506 71.987-57.088 125.133-149.555 131.84-93.901 6.912-171.264-35.379-175.77-107.366-2.15-34.56 13.005-68.403 42.752-95.386 30.208-27.29 71.578-44.134 116.685-47.514 5.325-0.307 10.598-0.563 15.872-0.563 86.886-0 145.766 51.098 150.016 118.989zM420.454 236.851c23.091 81.254-11.776 166.195-67.328 181.862-6.4 1.792-13.005 2.714-19.661 2.714-50.944 0-101.376-51.507-120.064-122.47-10.445-39.885-9.626-74.701 2.355-108.237 11.776-32.922 32.922-55.245 59.546-62.72 6.4-1.843 13.056-2.714 19.712-2.714 61.44 0 100.966 25.498 125.44 111.565zM817.203 413.798v-153.6h-97.28v153.6h-153.6v97.28h153.6v153.6h97.28v-153.6h153.6v-97.28h-153.6z"
				],
				"tags": [
					"googleplus",
					"social"
				],
				"grid": 20
			},
			"properties": {
				"id": 249,
				"order": 2,
				"prevSize": 20,
				"code": 58885,
				"name": "googleplus",
				"ligatures": ""
			},
			"setIdx": 3,
			"iconIdx": 249
		},
		{
			"icon": {
				"paths": [
					"M768 211.405h-146.227c-17.306 0-36.608 22.733-36.608 53.197v105.574h182.835v150.528h-182.835v452.096h-172.646v-452.045h-156.518v-150.579h156.518v-88.576c0-127.027 88.166-230.4 209.203-230.4h146.278v160.205z"
				],
				"tags": [
					"facebook",
					"social"
				],
				"grid": 20
			},
			"properties": {
				"id": 246,
				"order": 3,
				"prevSize": 20,
				"code": 58884,
				"name": "facebook",
				"ligatures": ""
			},
			"setIdx": 3,
			"iconIdx": 246
		},
		{
			"icon": {
				"paths": [
					"M983.040 219.802c-34.714 15.411-71.936 25.754-111.053 30.464 39.936-23.91 70.605-61.798 84.992-106.906-37.325 22.118-78.694 38.246-122.675 46.899-35.277-37.581-85.504-61.030-141.107-61.030-106.752 0-193.28 86.528-193.28 193.229 0 15.155 1.69 29.901 5.018 44.032-160.614-8.038-303.053-84.992-398.336-201.933-16.691 28.518-26.266 61.747-26.266 97.178 0 67.072 34.15 126.208 86.016 160.87-31.693-1.024-61.491-9.677-87.552-24.166 0 0.819 0 1.587 0 2.406 0 93.645 66.662 171.725 155.034 189.542-16.179 4.403-33.28 6.758-50.944 6.758-12.442 0-24.525-1.178-36.352-3.43 24.576 76.8 96 132.659 180.531 134.195-66.15 51.866-149.453 82.739-240.026 82.739-15.616 0-30.976-0.922-46.080-2.714 85.504 54.835 187.085 86.835 296.294 86.835 355.482 0 549.888-294.502 549.888-549.939 0-8.346-0.154-16.691-0.563-24.986 37.786-27.238 70.502-61.286 96.461-100.045z"
				],
				"tags": [
					"twitter",
					"social"
				],
				"grid": 20
			},
			"properties": {
				"id": 244,
				"order": 4,
				"prevSize": 20,
				"code": 58883,
				"name": "twitter",
				"ligatures": ""
			},
			"setIdx": 3,
			"iconIdx": 244
		},
		{
			"icon": {
				"paths": [
					"M102.502 143.309v121.242c362.803 0 656.896 294.144 656.896 656.947h121.293c-0-429.773-348.416-778.189-778.189-778.189zM102.502 385.843v121.293c228.864 0 414.413 185.498 414.413 414.362h121.19c0-295.782-239.77-535.654-535.603-535.654zM218.726 689.050c-64.154 0-116.224 52.070-116.224 116.275s52.070 116.224 116.224 116.224c64.205 0 116.275-52.019 116.275-116.224s-52.070-116.275-116.275-116.275z"
				],
				"tags": [
					"rss",
					"atom",
					"feed"
				],
				"grid": 20
			},
			"properties": {
				"id": 106,
				"order": 5,
				"prevSize": 20,
				"code": 58882,
				"name": "rss",
				"ligatures": ""
			},
			"setIdx": 3,
			"iconIdx": 106
		},
		{
			"icon": {
				"paths": [
					"M778.24 512c0 147.046-119.245 266.24-266.24 266.24-147.046 0-266.24-119.194-266.24-266.24 0-17.51 1.741-34.611 5.018-51.2h-179.098v353.894c0 75.981 61.542 137.626 137.626 137.626h605.389c75.981 0 137.626-61.594 137.626-137.626v-353.894h-179.046c3.226 16.589 4.966 33.69 4.966 51.2zM814.694 71.68h-605.389c-76.032 0-137.626 61.645-137.626 137.626v149.094h222.925c48.179-68.096 127.59-112.64 217.395-112.64s169.216 44.544 217.395 112.64h222.925v-149.094c0-75.981-61.645-137.626-137.626-137.626zM882.022 241.664c0 13.568-11.059 24.576-24.576 24.576h-73.677c-13.517 0-24.576-11.059-24.576-24.576v-73.728c0-13.568 11.11-24.576 24.576-24.576h73.677c13.568 0 24.576 11.059 24.576 24.576v73.728zM675.84 512c0-90.522-73.37-163.84-163.84-163.84s-163.84 73.318-163.84 163.84 73.37 163.84 163.84 163.84 163.84-73.318 163.84-163.84z"
				],
				"tags": [
					"instagram",
					"social"
				],
				"grid": 20
			},
			"properties": {
				"id": 268,
				"order": 6,
				"prevSize": 20,
				"code": 58887,
				"name": "instagram",
				"ligatures": ""
			},
			"setIdx": 3,
			"iconIdx": 268
		},
		{
			"icon": {
				"paths": [
					"M81.613 270.643c24.986 13.466 371.149 199.373 384.051 206.285 12.851 6.912 29.542 10.24 46.336 10.24 16.845 0 33.536-3.328 46.387-10.291 12.902-6.912 359.014-192.819 384-206.285 25.037-13.414 48.691-55.552 2.765-55.552h-866.253c-45.926 0-22.323 42.138 2.714 55.603zM952.986 373.043c-28.416 14.848-377.19 197.171-394.598 206.285s-29.542 10.291-46.387 10.291c-16.794 0-28.928-1.178-46.336-10.291s-366.234-191.488-394.598-206.285c-20.019-10.445-19.866 1.792-19.866 11.213 0 9.421 0 375.552 0 375.552 0 21.504 28.621 49.152 50.79 49.152h820.070c22.221 0 50.739-27.648 50.739-49.101 0 0 0-366.131 0-375.552 0-9.472 0.205-21.709-19.814-11.264z"
				],
				"tags": [
					"mail",
					"email",
					"message",
					"letter",
					"envelope",
					"contact"
				],
				"grid": 20
			},
			"properties": {
				"id": 4,
				"order": 7,
				"prevSize": 20,
				"code": 58881,
				"name": "mail",
				"ligatures": ""
			},
			"setIdx": 3,
			"iconIdx": 4
		}
	],
	"height": 1024,
	"metadata": {
		"name": "icomoon"
	},
	"preferences": {
		"fontPref": {
			"prefix": "icon-",
			"metadata": {
				"fontFamily": "icomoon",
				"majorVersion": 1,
				"minorVersion": 0
			},
			"showGlyphs": true,
			"metrics": {
				"emSize": 512,
				"baseline": 6.25,
				"whitespace": 50
			},
			"resetPoint": 58880,
			"showQuickUse": true,
			"quickUsageToken": false,
			"showMetrics": true,
			"showMetadata": false,
			"embed": true,
			"includeMetadata": false
		},
		"imagePref": {
			"color": 0,
			"height": 32,
			"columns": 16,
			"margin": 16,
			"png": false,
			"sprites": true
		},
		"historySize": 100,
		"showCodes": true,
		"gridSize": 16,
		"showLiga": false,
		"showGrid": true,
		"showGlyphs": true,
		"showQuickUse": true,
		"search": ""
	}
}